Manipolazione
…
library(here)
library(rio)

# L'importazione predefinita di {rio} è un semplice data.frame.

# Ma si può chiedere alla classe dell'oggetto importato di essere
# uns tibble!
here("data-raw", "Copenhagen_clean.xlsx") |>
  import(setclass = "tibble")

# A tibble: 384 × 46
      id sex      age group   class diarrhoea bloody vomiting abdo  nausea fever
   <dbl> <chr>  <dbl> <chr>   <chr> <lgl>     <lgl>  <lgl>    <lgl> <lgl>  <lgl>
 1     1 male      18 student 2     TRUE      FALSE  FALSE    TRUE  FALSE  NA   
 2     3 female    18 student 3     NA        NA     NA       NA    NA     NA   
 3     5 female    17 student 1     NA        NA     NA       TRUE  TRUE   NA   
 4     6 male      17 student 2     NA        NA     NA       NA    NA     NA   
 5     7 female    18 student 3     TRUE      FALSE  FALSE    TRUE  TRUE   FALSE
 6     8 male      18 student 2     TRUE      FALSE  FALSE    TRUE  FALSE  FALSE
 7     9 male      61 teacher <NA>  NA        NA     NA       NA    NA     NA   
 8    10 female    15 student 1     FALSE     FALSE  FALSE    FALSE TRUE   FALSE
 9    11 female    43 teacher <NA>  TRUE      NA     NA       NA    TRUE   NA   
10    12 male      16 student 1     NA        NA     NA       NA    NA     NA   
# ℹ 374 more rows
# ℹ 35 more variables: headache <lgl>, jointpain <lgl>, starthour <dbl>,
#   meal <lgl>, tuna <lgl>, tunaD <dbl>, shrimps <lgl>, shrimpsD <dbl>,
#   green <lgl>, greenD <dbl>, veal <lgl>, vealD <dbl>, pasta <lgl>,
#   pastaD <dbl>, rocket <lgl>, rocketD <dbl>, sauce <lgl>, sauceD <dbl>,
#   bread <lgl>, breadD <dbl>, champagne <lgl>, champagneD <dbl>, beer <lgl>,
#   beerD <dbl>, redwine <lgl>, redwineD <dbl>, whitewine <lgl>, …

library(here)
library(rio)

# L'importazione predefinita di {rio} è un semplice data.frame
# Si può anche impostare la classe {rio} di importazione a livello globale
options(rio.import.class = "tibble")

import(
  "http://www.principlesofeconometrics.com/sas/airline.sas7bdat"
)

# A tibble: 32 × 6
    YEAR     Y     W     R     L     K
   <dbl> <dbl> <dbl> <dbl> <dbl> <dbl>
 1  1948  1.21 0.243 0.145  1.41 0.612
 2  1949  1.35 0.260 0.218  1.38 0.559
 3  1950  1.57 0.278 0.316  1.39 0.573
 4  1951  1.95 0.297 0.394  1.55 0.564
 5  1952  2.27 0.310 0.356  1.80 0.574
 6  1953  2.73 0.322 0.359  1.93 0.711
 7  1954  3.03 0.335 0.403  1.96 0.776
 8  1955  3.56 0.350 0.396  2.12 0.827
 9  1956  3.98 0.361 0.382  2.43 0.800
10  1957  4.42 0.379 0.305  2.71 0.921
# ℹ 22 more rows
…
STATA

SPSS

Copenhagen_clean <- here("data-raw", "Copenhagen_clean.csv") |>
  import()

Copenhagen_clean |>
  # export() restituisce il percorso di uscita
  # in modo da poterlo riportare in pipe a import
  export(here("output", "Copenhagen_clean.csv")) |>
  import()

# A tibble: 384 × 46
      id sex      age group   class diarrhoea bloody vomiting abdo  nausea fever
   <int> <chr>  <int> <chr>   <int> <lgl>     <lgl>  <lgl>    <lgl> <lgl>  <lgl>
 1     1 male      18 student     2 TRUE      FALSE  FALSE    TRUE  FALSE  NA   
 2     3 female    18 student     3 NA        NA     NA       NA    NA     NA   
 3     5 female    17 student     1 NA        NA     NA       TRUE  TRUE   NA   
 4     6 male      17 student     2 NA        NA     NA       NA    NA     NA   
 5     7 female    18 student     3 TRUE      FALSE  FALSE    TRUE  TRUE   FALSE
 6     8 male      18 student     2 TRUE      FALSE  FALSE    TRUE  FALSE  FALSE
 7     9 male      61 teacher    NA NA        NA     NA       NA    NA     NA   
 8    10 female    15 student     1 FALSE     FALSE  FALSE    FALSE TRUE   FALSE
 9    11 female    43 teacher    NA TRUE      NA     NA       NA    TRUE   NA   
10    12 male      16 student     1 NA        NA     NA       NA    NA     NA   
# ℹ 374 more rows
# ℹ 35 more variables: headache <lgl>, jointpain <lgl>, starthour <int>,
#   meal <lgl>, tuna <lgl>, tunaD <int>, shrimps <lgl>, shrimpsD <int>,
#   green <lgl>, greenD <int>, veal <lgl>, vealD <int>, pasta <lgl>,
#   pastaD <int>, rocket <lgl>, rocketD <int>, sauce <lgl>, sauceD <int>,
#   bread <lgl>, breadD <int>, champagne <lgl>, champagneD <int>, beer <lgl>,
#   beerD <int>, redwine <lgl>, redwineD <int>, whitewine <lgl>, …

Copenhagen_clean |>
  export(here("output", "Copenhagen_clean.xlsx")) |>
  import()

# A tibble: 384 × 46
      id sex      age group   class diarrhoea bloody vomiting abdo  nausea fever
   <dbl> <chr>  <dbl> <chr>   <dbl> <lgl>     <lgl>  <lgl>    <lgl> <lgl>  <lgl>
 1     1 male      18 student     2 TRUE      FALSE  FALSE    TRUE  FALSE  NA   
 2     3 female    18 student     3 NA        NA     NA       NA    NA     NA   
 3     5 female    17 student     1 NA        NA     NA       TRUE  TRUE   NA   
 4     6 male      17 student     2 NA        NA     NA       NA    NA     NA   
 5     7 female    18 student     3 TRUE      FALSE  FALSE    TRUE  TRUE   FALSE
 6     8 male      18 student     2 TRUE      FALSE  FALSE    TRUE  FALSE  FALSE
 7     9 male      61 teacher    NA NA        NA     NA       NA    NA     NA   
 8    10 female    15 student     1 FALSE     FALSE  FALSE    FALSE TRUE   FALSE
 9    11 female    43 teacher    NA TRUE      NA     NA       NA    TRUE   NA   
10    12 male      16 student     1 NA        NA     NA       NA    NA     NA   
# ℹ 374 more rows
# ℹ 35 more variables: headache <lgl>, jointpain <lgl>, starthour <dbl>,
#   meal <lgl>, tuna <lgl>, tunaD <dbl>, shrimps <lgl>, shrimpsD <dbl>,
#   green <lgl>, greenD <dbl>, veal <lgl>, vealD <dbl>, pasta <lgl>,
#   pastaD <dbl>, rocket <lgl>, rocketD <dbl>, sauce <lgl>, sauceD <dbl>,
#   bread <lgl>, breadD <dbl>, champagne <lgl>, champagneD <dbl>, beer <lgl>,
#   beerD <dbl>, redwine <lgl>, redwineD <dbl>, whitewine <lgl>, …

Copenhagen_clean |>
  export(here("output", "Copenhagen_clean.sas7bdat")) |>
  import()

# A tibble: 384 × 46
      id sex      age group   class diarrhoea bloody vomiting  abdo nausea fever
   <dbl> <chr>  <dbl> <chr>   <dbl>     <dbl>  <dbl>    <dbl> <dbl>  <dbl> <dbl>
 1     1 male      18 student     2         1      0        0     1      0    NA
 2     3 female    18 student     3        NA     NA       NA    NA     NA    NA
 3     5 female    17 student     1        NA     NA       NA     1      1    NA
 4     6 male      17 student     2        NA     NA       NA    NA     NA    NA
 5     7 female    18 student     3         1      0        0     1      1     0
 6     8 male      18 student     2         1      0        0     1      0     0
 7     9 male      61 teacher    NA        NA     NA       NA    NA     NA    NA
 8    10 female    15 student     1         0      0        0     0      1     0
 9    11 female    43 teacher    NA         1     NA       NA    NA      1    NA
10    12 male      16 student     1        NA     NA       NA    NA     NA    NA
# ℹ 374 more rows
# ℹ 35 more variables: headache <dbl>, jointpain <dbl>, starthour <dbl>,
#   meal <dbl>, tuna <dbl>, tunaD <dbl>, shrimps <dbl>, shrimpsD <dbl>,
#   green <dbl>, greenD <dbl>, veal <dbl>, vealD <dbl>, pasta <dbl>,
#   pastaD <dbl>, rocket <dbl>, rocketD <dbl>, sauce <dbl>, sauceD <dbl>,
#   bread <dbl>, breadD <dbl>, champagne <dbl>, champagneD <dbl>, beer <dbl>,
#   beerD <dbl>, redwine <dbl>, redwineD <dbl>, whitewine <dbl>, …

Copenhagen_clean |>
  export(here("output", "Copenhagen_clean.dta")) |>
  import()

# A tibble: 384 × 46
      id sex      age group   class diarrhoea bloody vomiting  abdo nausea fever
   <dbl> <chr>  <dbl> <chr>   <dbl>     <dbl>  <dbl>    <dbl> <dbl>  <dbl> <dbl>
 1     1 male      18 student     2         1      0        0     1      0    NA
 2     3 female    18 student     3        NA     NA       NA    NA     NA    NA
 3     5 female    17 student     1        NA     NA       NA     1      1    NA
 4     6 male      17 student     2        NA     NA       NA    NA     NA    NA
 5     7 female    18 student     3         1      0        0     1      1     0
 6     8 male      18 student     2         1      0        0     1      0     0
 7     9 male      61 teacher    NA        NA     NA       NA    NA     NA    NA
 8    10 female    15 student     1         0      0        0     0      1     0
 9    11 female    43 teacher    NA         1     NA       NA    NA      1    NA
10    12 male      16 student     1        NA     NA       NA    NA     NA    NA
# ℹ 374 more rows
# ℹ 35 more variables: headache <dbl>, jointpain <dbl>, starthour <dbl>,
#   meal <dbl>, tuna <dbl>, tunaD <dbl>, shrimps <dbl>, shrimpsD <dbl>,
#   green <dbl>, greenD <dbl>, veal <dbl>, vealD <dbl>, pasta <dbl>,
#   pastaD <dbl>, rocket <dbl>, rocketD <dbl>, sauce <dbl>, sauceD <dbl>,
#   bread <dbl>, breadD <dbl>, champagne <dbl>, champagneD <dbl>, beer <dbl>,
#   beerD <dbl>, redwine <dbl>, redwineD <dbl>, whitewine <dbl>, …

Copenhagen_clean |>
  export(here("output", "Copenhagen_clean.sav")) |>
  import()

# A tibble: 384 × 46
      id sex      age group   class diarrhoea bloody vomiting  abdo nausea fever
   <dbl> <chr>  <dbl> <chr>   <dbl>     <dbl>  <dbl>    <dbl> <dbl>  <dbl> <dbl>
 1     1 male      18 student     2         1      0        0     1      0    NA
 2     3 female    18 student     3        NA     NA       NA    NA     NA    NA
 3     5 female    17 student     1        NA     NA       NA     1      1    NA
 4     6 male      17 student     2        NA     NA       NA    NA     NA    NA
 5     7 female    18 student     3         1      0        0     1      1     0
 6     8 male      18 student     2         1      0        0     1      0     0
 7     9 male      61 teacher    NA        NA     NA       NA    NA     NA    NA
 8    10 female    15 student     1         0      0        0     0      1     0
 9    11 female    43 teacher    NA         1     NA       NA    NA      1    NA
10    12 male      16 student     1        NA     NA       NA    NA     NA    NA
# ℹ 374 more rows
# ℹ 35 more variables: headache <dbl>, jointpain <dbl>, starthour <dbl>,
#   meal <dbl>, tuna <dbl>, tunaD <dbl>, shrimps <dbl>, shrimpsD <dbl>,
#   green <dbl>, greenD <dbl>, veal <dbl>, vealD <dbl>, pasta <dbl>,
#   pastaD <dbl>, rocket <dbl>, rocketD <dbl>, sauce <dbl>, sauceD <dbl>,
#   bread <dbl>, breadD <dbl>, champagne <dbl>, champagneD <dbl>, beer <dbl>,
#   beerD <dbl>, redwine <dbl>, redwineD <dbl>, whitewine <dbl>, …
…
Important

dplyr::filter consente di mantenere le righe in base ai valori delle colonne.

library(dplyr)
library(here)
library(rio)

db <- here("data-raw", "Copenhagen_clean.xlsx") |>
  import(setclass = "tibble")

db |>
  filter(age < 18)

# A tibble: 217 × 46
      id sex      age group   class diarrhoea bloody vomiting abdo  nausea fever
   <dbl> <chr>  <dbl> <chr>   <chr> <lgl>     <lgl>  <lgl>    <lgl> <lgl>  <lgl>
 1     5 female    17 student 1     NA        NA     NA       TRUE  TRUE   NA   
 2     6 male      17 student 2     NA        NA     NA       NA    NA     NA   
 3    10 female    15 student 1     FALSE     FALSE  FALSE    FALSE TRUE   FALSE
 4    12 male      16 student 1     NA        NA     NA       NA    NA     NA   
 5    19 male      17 student <NA>  NA        NA     NA       NA    NA     NA   
 6    22 male      17 student 2     NA        NA     NA       NA    NA     NA   
 7    23 female    17 student 2     TRUE      FALSE  TRUE     TRUE  TRUE   FALSE
 8    24 female    16 student 1     NA        NA     NA       NA    NA     NA   
 9    25 female    17 student 1     NA        NA     NA       NA    NA     NA   
10    27 male      17 student 2     TRUE      NA     NA       NA    NA     NA   
# ℹ 207 more rows
# ℹ 35 more variables: headache <lgl>, jointpain <lgl>, starthour <dbl>,
#   meal <lgl>, tuna <lgl>, tunaD <dbl>, shrimps <lgl>, shrimpsD <dbl>,
#   green <lgl>, greenD <dbl>, veal <lgl>, vealD <dbl>, pasta <lgl>,
#   pastaD <dbl>, rocket <lgl>, rocketD <dbl>, sauce <lgl>, sauceD <dbl>,
#   bread <lgl>, breadD <dbl>, champagne <lgl>, champagneD <dbl>, beer <lgl>,
#   beerD <dbl>, redwine <lgl>, redwineD <dbl>, whitewine <lgl>, …

Rows - conditions

Possiamo utilizzare qualsiasi tipo di condizione all’interno di dplyr::filter; per esempio,

E

db |>
  filter((age < 18) & case)

# A tibble: 114 × 46
      id sex      age group   class diarrhoea bloody vomiting abdo  nausea fever
   <dbl> <chr>  <dbl> <chr>   <chr> <lgl>     <lgl>  <lgl>    <lgl> <lgl>  <lgl>
 1    23 female    17 student 2     TRUE      FALSE  TRUE     TRUE  TRUE   FALSE
 2    27 male      17 student 2     TRUE      NA     NA       NA    NA     NA   
 3    29 male      16 student 1     TRUE      FALSE  FALSE    TRUE  TRUE   TRUE 
 4    30 male      16 student 1     TRUE      NA     NA       NA    TRUE   NA   
 5    34 female    17 student 2     TRUE      NA     FALSE    TRUE  TRUE   TRUE 
 6    38 female    17 student 1     TRUE      FALSE  FALSE    TRUE  TRUE   FALSE
 7    39 female    17 student 1     TRUE      NA     NA       TRUE  TRUE   NA   
 8    42 male      17 student 2     TRUE      FALSE  FALSE    FALSE TRUE   TRUE 
 9    46 male      17 student 2     TRUE      FALSE  FALSE    TRUE  FALSE  FALSE
10    49 female    16 student 1     TRUE      FALSE  TRUE     TRUE  TRUE   FALSE
# ℹ 104 more rows
# ℹ 35 more variables: headache <lgl>, jointpain <lgl>, starthour <dbl>,
#   meal <lgl>, tuna <lgl>, tunaD <dbl>, shrimps <lgl>, shrimpsD <dbl>,
#   green <lgl>, greenD <dbl>, veal <lgl>, vealD <dbl>, pasta <lgl>,
#   pastaD <dbl>, rocket <lgl>, rocketD <dbl>, sauce <lgl>, sauceD <dbl>,
#   bread <lgl>, breadD <dbl>, champagne <lgl>, champagneD <dbl>, beer <lgl>,
#   beerD <dbl>, redwine <lgl>, redwineD <dbl>, whitewine <lgl>, …

Righe - condizioni

Possiamo utilizzare qualsiasi tipo di condizione all’interno di dplyr::filter; per esempio,

O

db |>
  filter(gastrosymptoms | ate_anything)

# A tibble: 384 × 46
      id sex      age group   class diarrhoea bloody vomiting abdo  nausea fever
   <dbl> <chr>  <dbl> <chr>   <chr> <lgl>     <lgl>  <lgl>    <lgl> <lgl>  <lgl>
 1     1 male      18 student 2     TRUE      FALSE  FALSE    TRUE  FALSE  NA   
 2     3 female    18 student 3     NA        NA     NA       NA    NA     NA   
 3     5 female    17 student 1     NA        NA     NA       TRUE  TRUE   NA   
 4     6 male      17 student 2     NA        NA     NA       NA    NA     NA   
 5     7 female    18 student 3     TRUE      FALSE  FALSE    TRUE  TRUE   FALSE
 6     8 male      18 student 2     TRUE      FALSE  FALSE    TRUE  FALSE  FALSE
 7     9 male      61 teacher <NA>  NA        NA     NA       NA    NA     NA   
 8    10 female    15 student 1     FALSE     FALSE  FALSE    FALSE TRUE   FALSE
 9    11 female    43 teacher <NA>  TRUE      NA     NA       NA    TRUE   NA   
10    12 male      16 student 1     NA        NA     NA       NA    NA     NA   
# ℹ 374 more rows
# ℹ 35 more variables: headache <lgl>, jointpain <lgl>, starthour <dbl>,
#   meal <lgl>, tuna <lgl>, tunaD <dbl>, shrimps <lgl>, shrimpsD <dbl>,
#   green <lgl>, greenD <dbl>, veal <lgl>, vealD <dbl>, pasta <lgl>,
#   pastaD <dbl>, rocket <lgl>, rocketD <dbl>, sauce <lgl>, sauceD <dbl>,
#   bread <lgl>, breadD <dbl>, champagne <lgl>, champagneD <dbl>, beer <lgl>,
#   beerD <dbl>, redwine <lgl>, redwineD <dbl>, whitewine <lgl>, …

Righe - condizioni

Possiamo utilizzare qualsiasi tipo di condizione all’interno di dplyr::filter; per esempio,

In

db |>
  filter(age %in% 19:25)

# A tibble: 40 × 46
      id sex      age group   class diarrhoea bloody vomiting abdo  nausea fever
   <dbl> <chr>  <dbl> <chr>   <chr> <lgl>     <lgl>  <lgl>    <lgl> <lgl>  <lgl>
 1    16 male      20 student 3     TRUE      FALSE  FALSE    TRUE  FALSE  FALSE
 2    18 male      19 student 3     TRUE      FALSE  FALSE    TRUE  TRUE   FALSE
 3    26 female    19 student 3     FALSE     FALSE  FALSE    TRUE  TRUE   FALSE
 4    33 female    19 student 3     TRUE      NA     NA       TRUE  TRUE   FALSE
 5    40 male      19 student 3     TRUE      FALSE  TRUE     TRUE  TRUE   NA   
 6    50 female    19 student 2     NA        TRUE   NA       TRUE  TRUE   NA   
 7    58 male      20 student 3     NA        NA     NA       TRUE  NA     NA   
 8    63 female    19 student 3     TRUE      NA     FALSE    TRUE  TRUE   NA   
 9    91 female    19 student 3     FALSE     FALSE  FALSE    TRUE  FALSE  FALSE
10    93 female    19 student 3     FALSE     FALSE  TRUE     TRUE  TRUE   NA   
# ℹ 30 more rows
# ℹ 35 more variables: headache <lgl>, jointpain <lgl>, starthour <dbl>,
#   meal <lgl>, tuna <lgl>, tunaD <dbl>, shrimps <lgl>, shrimpsD <dbl>,
#   green <lgl>, greenD <dbl>, veal <lgl>, vealD <dbl>, pasta <lgl>,
#   pastaD <dbl>, rocket <lgl>, rocketD <dbl>, sauce <lgl>, sauceD <dbl>,
#   bread <lgl>, breadD <dbl>, champagne <lgl>, champagneD <dbl>, beer <lgl>,
#   beerD <dbl>, redwine <lgl>, redwineD <dbl>, whitewine <lgl>, …
…
Colonne - dplyr::select

Per le analisi, non è necessario in genere rimuovere le colonne dal dataset, ma potrebbe essere estremamente utile per vedere più chiaramente solo i dati che si devono vedere di volta in volta.1

È possibile selezionare la colonna da mantenere utilizzando il verbo dplyr::select():

Le variabili che si desidera mantenere

library(dplyr)

db |>
  select(sex, age, case)

# A tibble: 384 × 3
   sex      age case 
   <chr>  <dbl> <lgl>
 1 male      18 TRUE 
 2 female    18 FALSE
 3 female    17 FALSE
 4 male      17 FALSE
 5 female    18 TRUE 
 6 male      18 TRUE 
 7 male      61 FALSE
 8 female    15 FALSE
 9 female    43 TRUE 
10 male      16 FALSE
# ℹ 374 more rows
…
Colonne - dplyr::select

Per le analisi, non è necessario in genere rimuovere le colonne dal dataset, ma potrebbe essere estremamente utile per vedere più chiaramente solo i dati che si devono vedere di volta in volta.

È possibile selezionare la colonna da mantenere utilizzando il verbo dplyr::select():

Una gamma di variabili che si desidera mantenere

library(dplyr)

db |>
  select(sex:class)

# A tibble: 384 × 4
   sex      age group   class
   <chr>  <dbl> <chr>   <chr>
 1 male      18 student 2    
 2 female    18 student 3    
 3 female    17 student 1    
 4 male      17 student 2    
 5 female    18 student 3    
 6 male      18 student 2    
 7 male      61 teacher <NA> 
 8 female    15 student 1    
 9 female    43 teacher <NA> 
10 male      16 student 1    
# ℹ 374 more rows
…
